Hash:fd19171e86936e10e42edde5430170c433bcd728
{
  "cur_decay": "exp",
  "decay_rate": 1,
  "decay": 0.65,
  "eval_first": false,
  "std_clip": false,
  "yu": false,
  "more_power": 1,
  "dist_off_ground": true,
  "rand_Kp": false,
  "stair_thing": true,
  "early_stop": true,
  "cur_local": true,
  "cur_len": 1200,
  "cur_num": 3,
  "show_detection": false,
  "num_artifacts": 2,
  "inc": 1,
  "camera_rate": 6,
  "terrain_first": true,
  "advantage2": true,
  "include_actions": false,
  "const_std": true,
  "const_lr": false,
  "single_pol": false,
  "comparison": null,
  "use_roa": false,
  "baseline": false,
  "rand_flat": false,
  "new": false,
  "box_pen": false,
  "eval": true,
  "eval_dist": false,
  "dist_inc": 0,
  "initial_disturbance": 100,
  "final_disturbance": 2000,
  "difficulty": 1,
  "dist_difficulty": 0,
  "folder": "final_submitted2",
  "nicks": false,
  "vf_only": false,
  "speed_cur": false,
  "expert": false,
  "use_base": false,
  "separate_vf": false,
  "display_doa": false,
  "act": false,
  "forces": false,
  "render": false,
  "hpc": false,
  "lstm_pol": false,
  "test_pol": false,
  "vis": true,
  "vis_type": "depth",
  "cur": true,
  "mocap": false,
  "display_im": false,
  "stage3": false,
  "exp": "gaps_stage3",
  "obstacle_type": "gaps",
  "control_type": "walk",
  "seed": 84,
  "max_ts": 50000000.0,
  "lr": 0.0003,
  "vf_lr": 0.0003
}