Hash:03786af36db4b59c0369594db9a7c42067f26632
{
  "_map": {
    "cur_decay": "exp",
    "decay_rate": 1,
    "decay": 0.65,
    "cur_local": true,
    "cur_len": 1200,
    "cur_num": 3,
    "cur": false,
    "stair_thing": true,
    "obstacle_type": "jumps",
    "show_detection": false,
    "num_artifacts": 2,
    "height_coeff": 0.07,
    "difficulty": 10,
    "more_power": 1,
    "dist_off_ground": true,
    "dist_inc": 0,
    "initial_disturbance": 100,
    "final_disturbance": 100,
    "dist_difficulty": 0,
    "expert": false,
    "render": false,
    "e2e": false,
    "vis": true,
    "vis_type": "depth",
    "camera_rate": 6,
    "display_im": false,
    "const_std": false,
    "const_lr": false,
    "max_ts": 15000000,
    "lr": 0.0003,
    "vf_lr": 0.0003,
    "std_clip": false,
    "separate_vf": false,
    "lstm_pol": false,
    "dual_value": false,
    "dual_dqn": false,
    "folder": "all",
    "exp": "jumps_select_scaled",
    "control_type": "walk",
    "seed": 42,
    "eval": true,
    "hpc": false,
    "test_pol": false,
    "eval_first": false,
    "dqn": true,
    "debug": false,
    "multi": false,
    "all_setup": false,
    "doa": false,
    "adv": true,
    "yu": false,
    "nicks": false,
    "rand_Kp": false,
    "early_stop": true,
    "inc": 1,
    "terrain_first": true,
    "advantage2": false,
    "include_actions": false,
    "single_pol": true,
    "comparison": null,
    "use_roa": false,
    "baseline": false,
    "rand_flat": false,
    "new": false,
    "box_pen": false,
    "eval_dist": false,
    "vf_only": false,
    "speed_cur": false,
    "use_base": false,
    "display_doa": false,
    "act": false,
    "forces": false,
    "mocap": false,
    "stage3": false,
    "dqn_cur_decay": false,
    "term": false,
    "multi_robots": false,
    "supervised": false,
    "min_eps": 0.01,
    "eps_decay": 3000,
    "min_decay": 0.001,
    "just_setup": false,
    "just_dqn": false,
    "old_rew": true,
    "use_classifier": false,
    "baseline_reward": true,
    "eval_e2e": false,
    "flat_setup": false,
    "just_eval": false,
    "same_value": false,
    "train_setup": true,
    "no_extra_rew": false,
    "train_select": true,
    "select_desired": false,
    "success_explore": false,
    "delay_select": false,
    "blank": false,
    "categorical": false,
    "share_vis": true,
    "no_disturbance": true,
    "extra_on_terminate": true,
    "mem_test": "small",
    "rew": "scaled_adv3",
    "setup_length": 0,
    "fact": 1.0
  },
  "_dynamic": true
}