Hash:d8d6fef230f68f02076f42c4acc3ca13208adcbe
{
  "_map": {
    "cur_decay": "exp",
    "decay_rate": 1,
    "decay": 0.65,
    "cur_local": true,
    "cur_len": 1200,
    "cur_num": 3,
    "cur": false,
    "stair_thing": true,
    "obstacle_type": "high_jumps",
    "show_detection": false,
    "num_artifacts": 2,
    "height_coeff": 0.07,
    "difficulty": 1,
    "more_power": 1,
    "dist_off_ground": true,
    "dist_inc": 0,
    "initial_disturbance": 100,
    "final_disturbance": 100,
    "dist_difficulty": 0,
    "expert": false,
    "render": false,
    "e2e": false,
    "vis": true,
    "vis_type": "depth",
    "camera_rate": 6,
    "display_im": false,
    "const_std": false,
    "const_lr": false,
    "max_ts": 5000000.0,
    "lr": 0.0003,
    "vf_lr": 0.0003,
    "std_clip": false,
    "separate_vf": false,
    "lstm_pol": false,
    "dual_value": false,
    "dual_dqn": false,
    "folder": "t1",
    "exp": "titan2",
    "control_type": "walk",
    "seed": 42,
    "eval": true,
    "hpc": false,
    "test_pol": false,
    "eval_first": false,
    "sleep": 0.001,
    "dqn": false,
    "debug": false,
    "multi": false,
    "all_setup": false,
    "doa": false,
    "adv": false,
    "yu": false,
    "nicks": false,
    "rand_Kp": false,
    "early_stop": true,
    "inc": 1,
    "terrain_first": true,
    "include_actions": false,
    "single_pol": false,
    "comparison": null,
    "use_roa": false,
    "baseline": false,
    "rand_flat": false,
    "new": false,
    "box_pen": false,
    "eval_dist": false,
    "vf_only": false,
    "speed_cur": false,
    "use_base": false,
    "display_doa": false,
    "act": false,
    "forces": false,
    "mocap": false,
    "stage3": false,
    "dqn_cur_decay": false,
    "term": false,
    "multi_robots": false,
    "supervised": false,
    "min_eps": 0.01,
    "eps_decay": 3000,
    "min_decay": 0.001,
    "just_setup": false,
    "just_dqn": false,
    "old_rew": false,
    "use_classifier": false,
    "stacked": 5,
    "oct": true,
    "gap_aux": false,
    "train_detector": false,
    "add_reward": false,
    "display_hm": false,
    "flat_e2e": false,
    "costmap": false,
    "single_wp": false,
    "label_bit": false,
    "just_aux": false,
    "aux_size": 6,
    "aux": false,
    "use_gaps": false,
    "run_gaps": true,
    "curl": false,
    "augment": false,
    "record_step": true,
    "subt_hm": false,
    "individual": false,
    "gaps_learning_rate": 0.001,
    "horizon": 128,
    "hid_size": 256,
    "env": "gz",
    "alg": "ppo",
    "robot": "dynamic"
  },
  "_dynamic": true
}