EnvTotalSteps,EpLenMean,EpRewMean,EpThisIter,Eps,LearningRate,Success,TimeStepsSoFar,TimeThisIter,learning_rate,value_loss
3033,386.987012987013,316.4415584415595,77,0.43934,0.0003,0.0,0,38.71775984764099,0.0003,0.23932178
5081,409.10526315789474,353.1105263157904,76,0.39836,0.000299821212,0.0,29798,25.921051502227783,0.0002998212,0.5470114
7129,408.2098765432099,356.39753086419887,81,0.35738000000000003,0.00029963466,0.0,60890,25.892979860305786,0.00029963467,0.40248156
9177,430.74666666666667,374.7626666666676,75,0.3164,0.00029943627,0.0,93955,26.022705078125,0.00029943627,0.35098797
11225,427.53164556962025,373.4860759493684,79,0.27542,0.00029924243399999997,0.0,126261,26.337896823883057,0.00029924244,0.32186827
13273,407.9220779220779,358.20259740259837,77,0.23443999999999998,0.000299039784,0.0,160036,25.88546061515808,0.0002990398,0.58477616
15321,433.0,383.4727272727285,77,0.19346000000000002,0.000298851324,0.0,191446,25.72503113746643,0.00029885132,0.7420007
17369,407.1375,368.2875000000012,80,0.15248,0.00029865127799999996,0.0,224787,26.385798454284668,0.00029865128,0.9092272
19417,436.5897435897436,397.49230769230843,78,0.11149999999999999,0.00029845585199999994,0.0,257358,26.017130136489868,0.00029845585,1.9600675
21465,429.29487179487177,398.6743589743597,78,0.07052000000000003,0.000298251528,0.0,291412,25.934004068374634,0.0002982515,0.50445414
23513,405.3974358974359,386.12564102564187,78,0.02954000000000001,0.000298050618,0.0,324897,25.667718648910522,0.0002980506,0.49549204
25561,542.3508771929825,502.9684210526331,57,0.001,0.00029786089199999996,0.4583333333333333,356518,25.891604900360107,0.00029786088,5.9200735
27609,532.0,492.6187500000018,64,0.001,0.000297675408,0.43749999999999994,387432,25.962231636047363,0.0002976754,31.28402
29657,426.6835443037975,405.2151898734188,79,0.001,0.00029747111999999995,0.0,421480,25.532944679260254,0.00029747112,0.4162007
31705,431.2894736842105,422.58421052631627,76,0.001,0.000297268872,0.08333333333333333,455188,25.572704553604126,0.00029726888,1.6881441
33753,505.765625,484.70937500000116,64,0.001,0.00029707220399999995,0.47916666666666663,487966,25.588600158691406,0.0002970722,3.613607
35801,520.6666666666666,489.60634920635084,63,0.001,0.00029687798999999997,0.5416666666666666,520335,25.84188175201416,0.000296878,5.984562
37849,441.75342465753425,408.87123287671346,73,0.001,0.00029668117799999997,0.24999999999999997,553137,25.683404684066772,0.0002966812,5.9470477
39897,454.4533333333333,425.4506666666676,75,0.001,0.00029648768999999996,0.16666666666666666,585385,25.701181411743164,0.00029648768,11.464644
41945,478.6969696969697,446.206060606062,66,0.001,0.00029628318599999996,0.2708333333333333,619469,25.35890555381775,0.0002962832,1.5998414
45479,445.2972972972973,418.7243243243256,74,0.001,0.00029609362199999994,0.29166666666666663,651063,33.367770195007324,0.0002960936,5.2202854
47527,445.1216216216216,420.08918918919034,74,0.001,0.00029589590999999995,0.16666666666666666,684015,25.915769815444946,0.0002958959,4.8235598
49575,497.46666666666664,468.84666666666806,60,0.001,0.000295698276,0.375,716954,25.624847888946533,0.00029569826,7.1253886
51623,500.8985507246377,459.66376811594364,69,0.001,0.00029551918799999995,0.3958333333333333,746802,25.52617907524109,0.0002955192,2.7298534
53671,526.2461538461539,475.80923076923267,65,0.001,0.00029531181599999997,0.5,781364,25.73707675933838,0.00029531182,89.502106
55719,504.5076923076923,458.6184615384632,65,0.001,0.00029510657999999996,0.375,815570,25.99506950378418,0.00029510658,76.199425
57767,502.22222222222223,453.5238095238113,63,0.001,0.00029490982199999996,0.4375,848363,25.390239477157593,0.0002949098,3.1605258
59815,482.4264705882353,443.65000000000174,68,0.001,0.00029471998199999996,0.45833333333333326,880003,25.539587020874023,0.00029471997,9.4995
61863,464.65671641791045,427.37910447761345,67,0.001,0.000294523152,0.375,912808,25.54096221923828,0.00029452314,7.3161097
63911,520.4354838709677,480.8483870967759,62,0.001,0.00029433636,0.5208333333333333,943940,25.689987659454346,0.00029433635,2.1436117
65959,519.4179104477612,484.4925373134344,67,0.001,0.00029414275799999996,0.45833333333333326,976207,25.899897575378418,0.00029414275,2.7052553
68007,555.2456140350877,509.16842105263345,57,0.001,0.00029393395199999996,0.5625,1011008,25.35116934776306,0.00029393396,3.0792146
70055,581.5689655172414,534.8310344827605,58,0.001,0.00029374405799999996,0.45833333333333326,1042657,25.68272852897644,0.00029374406,6.9745884
72103,485.82089552238807,449.02089552238954,67,0.001,0.000293541672,0.47916666666666663,1076388,25.585660457611084,0.00029354167,15.53681
74151,546.2881355932203,497.9559322033917,59,0.001,0.00029334637199999997,0.5833333333333333,1108938,25.754223585128784,0.00029334638,42.2694
76199,530.0625,481.956250000002,64,0.001,0.000293152986,0.5833333333333333,1141169,25.61281442642212,0.000293153,4.4713345
78247,545.3684210526316,499.7263157894755,57,0.001,0.000292949442,0.49999999999999994,1175093,25.86911368370056,0.00029294944,3.9274635
80295,529.34375,493.8250000000014,64,0.001,0.00029276292599999995,0.3958333333333333,1206179,25.72981905937195,0.00029276294,4.7097816
82343,562.4915254237288,516.7898305084765,59,0.001,0.000292559658,0.5625,1240057,25.369187831878662,0.00029255965,19.567207
84391,449.375,416.88055555555695,72,0.001,0.00029236053599999994,0.3958333333333333,1273244,25.637653827667236,0.00029236055,15.80233
88396,557.3559322033898,509.7491525423748,59,0.001,0.00029216640599999996,0.5416666666666666,1305599,33.607850074768066,0.0002921664,1.4817318
90444,526.5238095238095,477.8000000000021,63,0.001,0.00029196910199999997,0.5625,1338483,25.512237310409546,0.0002919691,1.8359921
92492,488.95522388059703,455.9044776119415,67,0.001,0.000291770076,0.3333333333333333,1371654,26.004514455795288,0.00029177006,66.28582
94540,533.5833333333334,490.0300000000017,60,0.001,0.000291573516,0.5416666666666666,1404414,25.405559301376343,0.00029157352,3.7078242
96588,487.07246376811594,448.2666666666681,69,0.001,0.000291381426,0.45833333333333326,1436429,25.6815025806427,0.00029138144,8.479474
98636,527.7096774193549,476.4258064516148,62,0.001,0.00029117977799999995,0.5416666666666666,1470037,25.450807332992554,0.00029117978,9.38279
100684,486.55384615384617,444.2769230769247,65,0.001,0.00029098347,0.3333333333333333,1502755,25.532912731170654,0.00029098347,17.565624
102732,489.0,455.4776119403001,67,0.001,0.000290793714,0.35416666666666663,1534381,25.944753170013428,0.00029079372,9.2933035
104780,529.2380952380952,489.1238095238114,63,0.001,0.00029059713599999997,0.5,1567144,25.49201989173889,0.00029059715,4.6068897
106828,526.8225806451613,487.26129032258245,62,0.001,0.00029039708399999995,0.5,1600486,25.395809173583984,0.0002903971,3.8214474
108876,515.9104477611941,481.188059701494,67,0.001,0.000290201106,0.4583333333333333,1633149,25.51467800140381,0.0002902011,9.923815
110924,542.1272727272727,495.90909090909304,55,0.001,0.00028999371,0.6041666666666666,1667715,25.73444151878357,0.0002899937,3.511931
112972,602.5862068965517,554.6068965517264,58,0.001,0.00028981480799999997,0.6666666666666666,1697532,26.68897247314453,0.0002898148,6.6680064
115020,548.0357142857143,506.0785714285735,56,0.001,0.00028960510799999996,0.6875,1732482,26.60071873664856,0.00028960512,11.033311
117068,556.1,507.72666666666896,60,0.001,0.00028942096799999996,0.5833333333333333,1763172,26.386106252670288,0.00028942098,9.361237
119116,511.45454545454544,469.46666666666863,66,0.001,0.000289220772,0.4375,1796538,26.799707651138306,0.00028922077,12.742316
121164,545.7543859649123,505.3403508771948,57,0.001,0.00028901823599999997,0.5416666666666666,1830294,26.537771701812744,0.00028901824,6.3291645
123212,556.3548387096774,507.9483870967764,62,0.001,0.00028883158799999995,0.5625,1861402,26.735941886901855,0.0002888316,8.256666
125260,543.1694915254237,492.3355932203411,59,0.001,0.00028862462399999997,0.5208333333333333,1895896,26.422155618667603,0.00028862464,8.410577
127308,564.8524590163935,512.1573770491825,61,0.001,0.00028843234199999997,0.5833333333333333,1927943,26.479382514953613,0.00028843235,20.35017
