<?xml version="1.0" ?>
<!-- =================================================================================== -->
<!-- |    This document was autogenerated by xacro from robot.xacro                    | -->
<!-- |    EDITING THIS FILE BY HAND IS NOT RECOMMENDED                                 | -->
<!-- =================================================================================== -->
<robot name="macroed" xmlns:xacro="http://ros.org/wiki/xacro">
  <!-- <xacro:property name="leg_x" value="0.065" /> -->
  <!-- <xacro:property name="leg_y" value="0.1" /> -->
  <material name="blue">
    <color rgba="0.5 0.5 0.8 1"/>
  </material>
  <material name="black">
    <color rgba="0 0 0 1"/>
  </material>
  <material name="yellow">
    <color rgba="0 0 0 1"/>
  </material>
  <material name="green">
    <color rgba="0 0 0 1"/>
  </material>
  <material name="white">
    <color rgba="1 1 1 1"/>
  </material>
  <link name="base_link">
    <visual>
      <geometry>
        <box size="0.12, 0.33, 0.08"/>
      </geometry>
      <material name="blue"/>
    </visual>
    <collision>
      <geometry>
        <box size="0.12, 0.33, 0.08"/>
      </geometry>
      <origin rpy="0 0 0" xyz="0 0 0"/>
    </collision>
    <!-- <xacro:default_inertial mass="5"/> -->
    <inertial>
      <mass value="5"/>
      <inertia ixx="0.05" ixy="0.0" ixz="0.0" iyy="0.025" iyz="0.0" izz="0.05"/>
    </inertial>
  </link>
  <link name="torso_link">
    <visual>
      <geometry>
        <box size="0.1, 0.3, 0.25"/>
      </geometry>
      <material name="white"/>
    </visual>
    <collision>
      <geometry>
        <box size="0.1, 0.3, 0.25"/>
      </geometry>
    </collision>
    <!-- <xacro:default_inertial mass="15"/> -->
    <inertial>
      <mass value="15"/>
      <inertia ixx="0.15" ixy="0.0" ixz="0.0" iyy="0.15" iyz="0.0" izz="0.15"/>
    </inertial>
  </link>
  
  <!-- For the 2D constrained case -->
  <joint name="torso_base" type="fixed">
    <parent link="torso_link"/>
    <child link="base_link"/>
    <origin xyz="0 0 -0.165"/>
  </joint>

  <link name="torso_link2">
    <visual>
      <geometry>
        <box size="0.1, 0.3, 0.25"/>
      </geometry>
      <material name="white"/>
    </visual>
    <collision>
      <geometry>
        <box size="0.1, 0.3, 0.25"/>
      </geometry>
    </collision>
    <!-- <xacro:default_inertial mass="15"/> -->
    <inertial>
      <mass value="0.0001"/>
      <inertia ixx="0.15" ixy="0.0" ixz="0.0" iyy="0.15" iyz="0.0" izz="0.15"/>
    </inertial>
  </link>
  <joint name="torso_link_joint" type="fixed">
    <parent link="torso_link"/>
    <child link="torso_link2"/>
    <origin xyz="0 0 0"/>
  </joint>
  <!-- Changes where the z height is -->
  <!-- <joint name="torso_base" type="fixed">
    <parent link="base_link"/>
    <child link="torso_link"/>
    <origin xyz="0 0 0.165"/>
  </joint> -->

  <joint name="right_hip_z" type="revolute">
    <parent link="base_link"/>
    <child link="right_hip_z_link"/>
    <axis xyz="0 0 1"/>
    <dynamics damping="0.05" friction="0.1"/>
    <limit effort="2000.0" lower="-0.5" upper="0.5" velocity="500"/>
    <origin rpy="0 0 0" xyz="0 -0.1 -0.05625"/>
  </joint>
  <link name="right_hip_z_link">
    <visual>
      <geometry>
        <sphere radius="0.065"/>
      </geometry>
      <origin rpy="0 0 0" xyz="0 0 0"/>
      <material name="blue"/>
    </visual>
    <collision>
      <geometry>
        <sphere radius="0.065"/>
      </geometry>
      <origin rpy="0 0 0" xyz="0 0 0"/>
    </collision>
    <inertial>
      <mass value="0.0001"/>
      <inertia ixx="0.00001" ixy="0.0" ixz="0.0" iyy="0.00001" iyz="0.0" izz="0.00001"/>
    </inertial>
  </link>
  <joint name="right_hip_x" type="revolute">
    <parent link="right_hip_z_link"/>
    <child link="right_hip_x_link"/>
    <axis xyz="1 0 0"/>
    <dynamics damping="0.05" friction="0.1"/>
    <limit effort="2000.0" lower="-0.5" upper="0.5" velocity="500"/>
    <origin rpy="0 0 0" xyz="0 0 0"/>
  </joint>
  <link name="right_hip_x_link">
    <inertial>
      <mass value="0.0001"/>
      <inertia ixx="5.8083e-4" ixy="0" ixz="0" iyy="3.0833e-5" iyz="0" izz="5.9083e-4"/>
    </inertial>
  </link>
  <joint name="right_hip_y" type="revolute">
    <parent link="right_hip_x_link"/>
    <child link="right_thigh_link"/>
    <axis xyz="0 1 0"/>
    <dynamics damping="0.05" friction="0.2"/>
    <limit effort="2000.0" lower="-1.3" upper="0.5" velocity="500"/>
    <origin rpy="0 0 0" xyz="0 0 0"/>
  </joint>
  <link name="right_thigh_link">
    <visual>
      <geometry>
        <!-- <box size="${leg_x} ${leg_y} ${thigh_z}"/> -->
        <cylinder length="0.29" radius="0.06"/>
      </geometry>
      <origin rpy="0 0 0" xyz="0 0 -0.16125"/>
      <material name="blue"/>
    </visual>
    <collision>
      <geometry>
        <!-- <box size="${leg_x} ${leg_y} ${thigh_z}"/> -->
        <cylinder length="0.29" radius="0.06"/>
      </geometry>
      <origin rpy="0 0 0" xyz="0 0 -0.16125"/>
    </collision>
    <!-- <xacro:default_inertial mass="8"/> -->
    <inertial>
      <mass value="8"/>
      <inertia ixx="0.065" ixy="0.0" ixz="0.0" iyy="0.065" iyz="0.0" izz="0.01"/>
    </inertial>
  </link>
  <joint name="right_thigh_knee" type="fixed">
    <parent link="right_thigh_link"/>
    <child link="right_knee_link"/>
    <origin xyz="0 0 -0.30624999999999997"/>
  </joint>
  <link name="right_knee_link">
    <visual>
      <geometry>
        <cylinder length="0.1" radius="0.04"/>
      </geometry>
      <origin rpy="1.5708 0 0" xyz="0 0 0"/>
      <material name="blue"/>
    </visual>
    <collision>
      <geometry>
        <cylinder length="0.1" radius="0.04"/>
      </geometry>
      <origin rpy="1.5708 0 0" xyz="0 0 0"/>
    </collision>
    <inertial>
      <mass value="0.0001"/>
      <inertia ixx="0.00001" ixy="0.0" ixz="0.0" iyy="0.00001" iyz="0.0" izz="0.00001"/>
    </inertial>
  </link>
  <joint name="right_knee" type="revolute">
    <parent link="right_knee_link"/>
    <child link="right_shin"/>
    <axis xyz="0 -1 0"/>
    <dynamics damping="0.005" friction="0.05"/>
    <limit effort="2000.0" lower="-2.0" upper="0.0" velocity="500"/>
    <!-- <origin rpy="0 0 0" xyz="0 0 -${thigh_z}}"/> -->
    <origin rpy="0 0 0" xyz="0 0 0"/>
  </joint>
  <link name="right_shin">
    <visual>
      <geometry>
        <!-- <box size="${leg_x} ${leg_y} ${shin_z}"/> -->
        <cylinder length="0.31" radius="0.05"/>
      </geometry>
      <origin rpy="0 0 0" xyz="0 0 -0.17125"/>
      <material name="blue"/>
    </visual>
    <collision>
      <geometry>
        <!-- <box size="${leg_x} ${leg_y} ${shin_z}"/> -->
        <cylinder length="0.31" radius="0.05"/>
      </geometry>
      <origin rpy="0 0 0" xyz="0 0 -0.17125"/>
    </collision>
    <!-- <xacro:default_inertial mass="8"/> -->
    <inertial>
      <mass value="8"/>
      <inertia ixx="0.065" ixy="0.0" ixz="0.0" iyy="0.065" iyz="0.0" izz="0.01"/>
    </inertial>
  </link>
  <joint name="right_ankle_x" type="revolute">
    <parent link="right_shin"/>
    <child link="right_ankle_x_link"/>
    <axis xyz="-1 0 0"/>
    <dynamics damping="0.05" friction="0.2"/>
    <limit effort="2000.0" lower="-0.5" upper="0.5" velocity="500"/>
    <origin rpy="0 0 0" xyz="0 0 -0.3425"/>
  </joint>
  <link name="right_ankle_x_link">
    <visual>
      <geometry>
        <sphere radius="0.05"/>
      </geometry>
      <origin rpy="0 0 0" xyz="0 0 0"/>
      <material name="blue"/>
    </visual>
    <collision>
      <geometry>
        <sphere radius="0.05"/>
      </geometry>
      <origin rpy="0 0 0" xyz="0 0 0"/>
    </collision>
    <inertial>
      <mass value="0.0001"/>
      <inertia ixx="0.00001" ixy="0.0" ixz="0.0" iyy="0.00001" iyz="0.0" izz="0.00001"/>
    </inertial>
  </link>
  <joint name="right_ankle_y" type="revolute">
    <parent link="right_ankle_x_link"/>
    <child link="right_heel1"/>
    <axis xyz="0 1 0"/>
    <dynamics damping="0.05" friction="0.2"/>
    <limit effort="2000.0" lower="-0.6" upper="0.6" velocity="500"/>
    <origin rpy="0 0 0" xyz="0 0 0"/>
  </joint>
 
  <link name="right_heel1">
    <visual>
      <geometry>
        <!-- <box size="${heel_x} ${heel_y} ${heel_z}"/> -->
        <cylinder length="0.16" radius="0.035"/>
      </geometry>
      <origin rpy="0 1.5708 0" xyz="0.035 -0.0175 -0.05/3"/>
      <material name="black"/>
    </visual>
    <collision>
      <geometry>
        <!-- <box size="${heel_x} ${heel_y} ${heel_z}"/> -->
        <cylinder length="0.16" radius="0.035"/>
      </geometry>
      <origin rpy="0 1.5708 0" xyz="0.035 -0.0175 -0.05/3"/>
    </collision>
    <!-- <xacro:default_inertial mass="1"/> -->
    <inertial>
      <mass value="1"/>
      <inertia ixx="0.0004" ixy="0.0" ixz="0.0" iyy="0.0004" iyz="0.0" izz="0.0004"/>
    </inertial>
  </link>
  <joint name="right_heel_heel" type="fixed">
    <parent link="right_heel1"/>
    <child link="right_heel2"/>
    <origin xyz="0.035 0.0175 -0.05/3"/>
  </joint>
  <link name="right_heel2">
    <visual>
      <geometry>
        <!-- <box size="${heel_x} ${heel_y} ${heel_z}"/> -->
        <cylinder length="0.16" radius="0.035"/>
      </geometry>
      <origin rpy="0 1.5708 0" xyz="0 0 0"/>
      <material name="black"/>
    </visual>
    <collision>
      <geometry>
        <!-- <box size="${heel_x} ${heel_y} ${heel_z}"/> -->
        <cylinder length="0.16" radius="0.035"/>
      </geometry>
      <origin rpy="0 1.5708 0" xyz="0 0 0"/>
    </collision>
    <!-- <xacro:default_inertial mass="1"/> -->
    <inertial>
      <mass value="1"/>
      <inertia ixx="0.0004" ixy="0.0" ixz="0.0" iyy="0.0004" iyz="0.0" izz="0.0004"/>
    </inertial>
  </link>
  <joint name="right_heel_toe" type="fixed">
    <parent link="right_heel2"/>
    <child link="right_toe1"/>
    <!-- <origin xyz="0.08 -0.0175 0"/> -->
    <origin xyz="0.08 -0.045 -0.005"/>
  </joint>
  <link name="right_toe1">
    <visual>
      <geometry>
        <!-- <box size="${toe_x} ${toe_y} ${toe_z}"/> -->
        <cylinder length="0.0525" radius="0.03"/>
      </geometry>
      <origin rpy="1.5708 0 0" xyz="0 0 0"/>
      <material name="black"/>
    </visual>
    <collision>
      <geometry>
        <!-- <box size="${toe_x} ${toe_y} ${toe_z}"/> -->
        <cylinder length="0.0525" radius="0.03"/>
      </geometry>
      <origin rpy="1.5708 0 0" xyz="0 0 0"/>
    </collision>
    <!-- <xacro:default_inertial mass="1"/> -->
    <inertial>
      <mass value="1"/>
      <inertia ixx="0.0004" ixy="0.0" ixz="0.0" iyy="0.0004" iyz="0.0" izz="0.0004"/>
    </inertial>
  </link>
  <joint name="right_heel_toe2" type="fixed">
    <parent link="right_heel2"/>
    <child link="right_toe2"/>
    <origin xyz="0.08 0.01 -0.005"/>
  </joint>
  <link name="right_toe2">
    <visual>
      <geometry>
        <!-- <box size="${toe_x} ${toe_y} ${toe_z}"/> -->
        <cylinder length="0.0525" radius="0.03"/>
      </geometry>
      <origin rpy="1.5708 0 0" xyz="0 0 0"/>
      <material name="black"/>
    </visual>
    <collision>
      <geometry>
        <!-- <box size="${toe_x} ${toe_y} ${toe_z}"/> -->
        <cylinder length="0.0525" radius="0.03"/>
      </geometry>
      <origin rpy="1.5708 0 0" xyz="0 0 0"/>
    </collision>
    <!-- <xacro:default_inertial mass="1"/> -->
    <inertial>
      <mass value="1"/>
      <inertia ixx="0.0004" ixy="0.0" ixz="0.0" iyy="0.0004" iyz="0.0" izz="0.0004"/>
    </inertial>
  </link>

  <joint name="left_hip_z" type="revolute">
    <parent link="base_link"/>
    <child link="left_hip_z_link"/>
    <axis xyz="0 0 -1"/>
    <dynamics damping="0.05" friction="0.1"/>
    <limit effort="2000.0" lower="-0.5" upper="0.5" velocity="500"/>
    <origin rpy="0 0 0" xyz="0 0.1 -0.05625"/>
  </joint>
  <link name="left_hip_z_link">
    <visual>
      <geometry>
        <sphere radius="0.065"/>
      </geometry>
      <origin rpy="0 0 0" xyz="0 0 0"/>
      <material name="blue"/>
    </visual>
    <collision>
      <geometry>
        <sphere radius="0.065"/>
      </geometry>
      <origin rpy="0 0 0" xyz="0 0 0"/>
    </collision>
    <inertial>
      <mass value="0.0001"/>
      <inertia ixx="0.00001" ixy="0.0" ixz="0.0" iyy="0.00001" iyz="0.0" izz="0.00001"/>
    </inertial>
  </link>
  <joint name="left_hip_x" type="revolute">
    <parent link="left_hip_z_link"/>
    <child link="left_hip_x_link"/>
    <axis xyz="-1 0 0"/>
    <dynamics damping="0.05" friction="0.1"/>
    <limit effort="2000.0" lower="-0.5" upper="0.5" velocity="500"/>
    <origin rpy="0 0 0" xyz="0 0 0"/>
  </joint>
  <link name="left_hip_x_link">
    <inertial>
      <mass value="0.0001"/>
      <inertia ixx="5.8083e-4" ixy="0" ixz="0" iyy="3.0833e-5" iyz="0" izz="5.9083e-4"/>
    </inertial>
  </link>
  <joint name="left_hip_y" type="revolute">
    <parent link="left_hip_x_link"/>
    <child link="left_thigh_link"/>
    <axis xyz="0 1 0"/>
    <dynamics damping="0.05" friction="0.2"/>
    <limit effort="2000.0" lower="-1.3" upper="0.5" velocity="500"/>
    <origin rpy="0 0 0" xyz="0 0 0"/>
  </joint>
  <link name="left_thigh_link">
    <visual>
      <geometry>
        <!-- <box size="${leg_x} ${leg_y} ${thigh_z}"/> -->
        <cylinder length="0.29" radius="0.06"/>
      </geometry>
      <origin rpy="0 0 0" xyz="0 0 -0.16125"/>
      <material name="blue"/>
    </visual>
    <collision>
      <geometry>
        <!-- <box size="${leg_x} ${leg_y} ${thigh_z}"/> -->
        <cylinder length="0.29" radius="0.06"/>
      </geometry>
      <origin rpy="0 0 0" xyz="0 0 -0.16125"/>
    </collision>
    <!-- <xacro:default_inertial mass="8"/> -->
    <inertial>
      <mass value="8"/>
      <inertia ixx="0.065" ixy="0.0" ixz="0.0" iyy="0.065" iyz="0.0" izz="0.01"/>
    </inertial>
  </link>
  <joint name="left_thigh_knee" type="fixed">
    <parent link="left_thigh_link"/>
    <child link="left_knee_link"/>
    <origin xyz="0 0 -0.30624999999999997"/>
  </joint>
  <link name="left_knee_link">
    <visual>
      <geometry>
        <cylinder length="0.1" radius="0.04"/>
      </geometry>
      <origin rpy="1.5708 0 0" xyz="0 0 0"/>
      <material name="blue"/>
    </visual>
    <collision>
      <geometry>
        <cylinder length="0.1" radius="0.04"/>
      </geometry>
      <origin rpy="1.5708 0 0" xyz="0 0 0"/>
    </collision>
    <inertial>
      <mass value="0.0001"/>
      <inertia ixx="0.00001" ixy="0.0" ixz="0.0" iyy="0.00001" iyz="0.0" izz="0.00001"/>
    </inertial>
  </link>
  <joint name="left_knee" type="revolute">
    <parent link="left_knee_link"/>
    <child link="left_shin"/>
    <axis xyz="0 -1 0"/>
    <dynamics damping="0.005" friction="0.05"/>
    <limit effort="2000.0" lower="-2.0" upper="0.0" velocity="500"/>
    <!-- <origin rpy="0 0 0" xyz="0 0 -${thigh_z}}"/> -->
    <origin rpy="0 0 0" xyz="0 0 0"/>
  </joint>
  <link name="left_shin">
    <visual>
      <geometry>
        <!-- <box size="${leg_x} ${leg_y} ${shin_z}"/> -->
        <cylinder length="0.31" radius="0.05"/>
      </geometry>
      <origin rpy="0 0 0" xyz="0 0 -0.17125"/>
      <material name="blue"/>
    </visual>
    <collision>
      <geometry>
        <!-- <box size="${leg_x} ${leg_y} ${shin_z}"/> -->
        <cylinder length="0.31" radius="0.05"/>
      </geometry>
      <origin rpy="0 0 0" xyz="0 0 -0.17125"/>
    </collision>
    <!-- <xacro:default_inertial mass="8"/> -->
    <inertial>
      <mass value="8"/>
      <inertia ixx="0.065" ixy="0.0" ixz="0.0" iyy="0.065" iyz="0.0" izz="0.01"/>
    </inertial>
  </link>
  <joint name="left_ankle_x" type="revolute">
    <parent link="left_shin"/>
    <child link="left_ankle_x_link"/>
    <axis xyz="1 0 0"/>
    <dynamics damping="0.05" friction="0.2"/>
    <limit effort="2000.0" lower="-0.5" upper="0.5" velocity="500"/>
    <origin rpy="0 0 0" xyz="0 0 -0.3425"/>
  </joint>
  <link name="left_ankle_x_link">
    <visual>
      <geometry>
        <sphere radius="0.05"/>
      </geometry>
      <origin rpy="0 0 0" xyz="0 0 0"/>
      <material name="blue"/>
    </visual>
    <collision>
      <geometry>
        <sphere radius="0.05"/>
      </geometry>
      <origin rpy="0 0 0" xyz="0 0 0"/>
    </collision>
    <inertial>
      <mass value="0.0001"/>
      <inertia ixx="0.00001" ixy="0.0" ixz="0.0" iyy="0.00001" iyz="0.0" izz="0.00001"/>
    </inertial>
  </link>
  <joint name="left_ankle_y" type="revolute">
    <parent link="left_ankle_x_link"/>
    <child link="left_heel1"/>
    <axis xyz="0 1 0"/>
    <dynamics damping="0.05" friction="0.2"/>
    <limit effort="2000.0" lower="-0.6" upper="0.6" velocity="500"/>
    <origin rpy="0 0 0" xyz="0 0 0"/>
  </joint>
  <link name="left_heel1">
    <visual>
      <geometry>
        <!-- <box size="${heel_x} ${heel_y} ${heel_z}"/> -->
        <cylinder length="0.16" radius="0.035"/>
      </geometry>
      <origin rpy="0 1.5708 0" xyz="0.035 -0.0175 -0.05/3"/>
      <material name="black"/>
    </visual>
    <collision>
      <geometry>
        <!-- <box size="${heel_x} ${heel_y} ${heel_z}"/> -->
        <cylinder length="0.16" radius="0.035"/>
      </geometry>
      <origin rpy="0 1.5708 0" xyz="0.035 -0.0175 -0.05/3"/>
    </collision>
    <!-- <xacro:default_inertial mass="1"/> -->
    <inertial>
      <mass value="1"/>
      <inertia ixx="0.0004" ixy="0.0" ixz="0.0" iyy="0.0004" iyz="0.0" izz="0.0004"/>
    </inertial>
  </link>
  <joint name="left_heel_heel" type="fixed">
    <parent link="left_heel1"/>
    <child link="left_heel2"/>
    <origin xyz="0.035 0.0175 -0.05/3"/>
  </joint>
  <link name="left_heel2">
    <visual>
      <geometry>
        <!-- <box size="${heel_x} ${heel_y} ${heel_z}"/> -->
        <cylinder length="0.16" radius="0.035"/>
      </geometry>
      <origin rpy="0 1.5708 0" xyz="0 0 0"/>
      <material name="black"/>
    </visual>
    <collision>
      <geometry>
        <!-- <box size="${heel_x} ${heel_y} ${heel_z}"/> -->
        <cylinder length="0.16" radius="0.035"/>
      </geometry>
      <origin rpy="0 1.5708 0" xyz="0 0 0"/>
    </collision>
    <!-- <xacro:default_inertial mass="1"/> -->
    <inertial>
      <mass value="1"/>
      <inertia ixx="0.0004" ixy="0.0" ixz="0.0" iyy="0.0004" iyz="0.0" izz="0.0004"/>
    </inertial>
  </link>
  <joint name="left_heel_toe" type="fixed">
    <parent link="left_heel2"/>
    <child link="left_toe1"/>
    <!-- <origin xyz="0.08 -0.0175 0"/> -->
    <origin xyz="0.08 -0.045 -0.005"/>
  </joint>
  <link name="left_toe1">
    <visual>
      <geometry>
        <!-- <box size="${toe_x} ${toe_y} ${toe_z}"/> -->
        <cylinder length="0.0525" radius="0.03"/>
      </geometry>
      <origin rpy="1.5708 0 0" xyz="0 0 0"/>
      <material name="black"/>
    </visual>
    <collision>
      <geometry>
        <!-- <box size="${toe_x} ${toe_y} ${toe_z}"/> -->
        <cylinder length="0.0525" radius="0.03"/>
      </geometry>
      <origin rpy="1.5708 0 0" xyz="0 0 0"/>
    </collision>
    <!-- <xacro:default_inertial mass="1"/> -->
    <inertial>
      <mass value="1"/>
      <inertia ixx="0.0004" ixy="0.0" ixz="0.0" iyy="0.0004" iyz="0.0" izz="0.0004"/>
    </inertial>
  </link>
  <joint name="left_heel_toe2" type="fixed">
    <parent link="left_heel2"/>
    <child link="left_toe2"/>
    <origin xyz="0.08 0.01 -0.005"/>
  </joint>
  <link name="left_toe2">
    <visual>
      <geometry>
        <!-- <box size="${toe_x} ${toe_y} ${toe_z}"/> -->
        <cylinder length="0.0525" radius="0.03"/>
      </geometry>
      <origin rpy="1.5708 0 0" xyz="0 0 0"/>
      <material name="black"/>
    </visual>
    <collision>
      <geometry>
        <!-- <box size="${toe_x} ${toe_y} ${toe_z}"/> -->
        <cylinder length="0.0525" radius="0.03"/>
      </geometry>
      <origin rpy="1.5708 0 0" xyz="0 0 0"/>
    </collision>
    <!-- <xacro:default_inertial mass="1"/> -->
    <inertial>
      <mass value="1"/>
      <inertia ixx="0.0004" ixy="0.0" ixz="0.0" iyy="0.0004" iyz="0.0" izz="0.0004"/>
    </inertial>
  </link>
</robot>

